{
    "$schema": "https://raw.githubusercontent.com/DotNetAnalyzers/StyleCopAnalyzers/master/StyleCop.Analyzers/StyleCop.Analyzers/Settings/stylecop.schema.json",
    "settings": {
      "documentationRules": {
        "companyName": "Snoop"
      },
      "indentation": {
        "useTabs": false,
        "indentationSize": 4
      },
      "layoutRules": {
        "newlineAtEndOfFile": "require",
        "allowConsecutiveUsings": false
      },
      "orderingRules": {
        "systemUsingDirectivesFirst": true,
        "usingDirectivesPlacement": "outsideNamespace"
      }
    }
  }
  